EESchema Schematic File Version 4
EELAYER 26 0
EELAYER END
$Descr A4 11693 8268
encoding utf-8
Sheet 1 1
Title ""
Date ""
Rev ""
Comp ""
Comment1 ""
Comment2 ""
Comment3 ""
Comment4 ""
$EndDescr
$Comp
L Device:D D5
U 1 1 5C701C2C
P 1950 700
F 0 "D5" H 1850 650 50  0000 C CNN
F 1 "S3G-13-F" H 1950 575 50  0001 C CNN
F 2 "cr-10s-connector-board:DO-214AB" H 1950 700 50  0001 C CNN
F 3 "~" H 1950 700 50  0001 C CNN
F 4 "DigiKey" H 1950 700 50  0001 C CNN "Supplier"
F 5 "S3G-FDICT-ND " H 1950 700 50  0001 C CNN "Supplier Part Number"
	1    1950 700 
	-1   0    0    1   
$EndComp
$Comp
L Device:D D17
U 1 1 5C702271
P 2350 700
F 0 "D17" H 2200 650 50  0000 C CNN
F 1 "S3G-13-F" H 2350 575 50  0001 C CNN
F 2 "cr-10s-connector-board:DO-214AB" H 2350 700 50  0001 C CNN
F 3 "~" H 2350 700 50  0001 C CNN
F 4 "DigiKey" H 2350 700 50  0001 C CNN "Supplier"
F 5 "S3G-FDICT-ND " H 2350 700 50  0001 C CNN "Supplier Part Number"
	1    2350 700 
	-1   0    0    1   
$EndComp
$Comp
L Device:D D18
U 1 1 5C702291
P 2350 900
F 0 "D18" H 2500 850 50  0000 C CNN
F 1 "S3G-13-F" H 2400 750 50  0001 C CNN
F 2 "cr-10s-connector-board:DO-214AB" H 2350 900 50  0001 C CNN
F 3 "~" H 2350 900 50  0001 C CNN
F 4 "DigiKey" H 2350 900 50  0001 C CNN "Supplier"
F 5 "S3G-FDICT-ND " H 2350 900 50  0001 C CNN "Supplier Part Number"
	1    2350 900 
	1    0    0    -1  
$EndComp
$Comp
L Device:D D6
U 1 1 5C7023A9
P 1950 900
F 0 "D6" H 2050 850 50  0000 C CNN
F 1 "S3G-13-F" H 2000 750 50  0001 C CNN
F 2 "cr-10s-connector-board:DO-214AB" H 1950 900 50  0001 C CNN
F 3 "~" H 1950 900 50  0001 C CNN
F 4 "DigiKey" H 1950 900 50  0001 C CNN "Supplier"
F 5 "S3G-FDICT-ND " H 1950 900 50  0001 C CNN "Supplier Part Number"
	1    1950 900 
	1    0    0    -1  
$EndComp
Wire Wire Line
	2100 700  2200 700 
Wire Wire Line
	2200 900  2100 900 
Wire Wire Line
	2500 700  2500 800 
Wire Wire Line
	1800 700  1800 800 
$Comp
L Device:D D7
U 1 1 5C702870
P 1950 1250
F 0 "D7" H 1850 1200 50  0000 C CNN
F 1 "S3G-13-F" H 1950 1125 50  0001 C CNN
F 2 "cr-10s-connector-board:DO-214AB" H 1950 1250 50  0001 C CNN
F 3 "~" H 1950 1250 50  0001 C CNN
F 4 "DigiKey" H 1950 1250 50  0001 C CNN "Supplier"
F 5 "S3G-FDICT-ND " H 1950 1250 50  0001 C CNN "Supplier Part Number"
	1    1950 1250
	-1   0    0    1   
$EndComp
$Comp
L Device:D D19
U 1 1 5C702878
P 2350 1250
F 0 "D19" H 2200 1200 50  0000 C CNN
F 1 "S3G-13-F" H 2350 1125 50  0001 C CNN
F 2 "cr-10s-connector-board:DO-214AB" H 2350 1250 50  0001 C CNN
F 3 "~" H 2350 1250 50  0001 C CNN
F 4 "DigiKey" H 2350 1250 50  0001 C CNN "Supplier"
F 5 "S3G-FDICT-ND " H 2350 1250 50  0001 C CNN "Supplier Part Number"
	1    2350 1250
	-1   0    0    1   
$EndComp
$Comp
L Device:D D20
U 1 1 5C702880
P 2350 1450
F 0 "D20" H 2500 1400 50  0000 C CNN
F 1 "S3G-13-F" H 2400 1300 50  0001 C CNN
F 2 "cr-10s-connector-board:DO-214AB" H 2350 1450 50  0001 C CNN
F 3 "~" H 2350 1450 50  0001 C CNN
F 4 "DigiKey" H 2350 1450 50  0001 C CNN "Supplier"
F 5 "S3G-FDICT-ND " H 2350 1450 50  0001 C CNN "Supplier Part Number"
	1    2350 1450
	1    0    0    -1  
$EndComp
$Comp
L Device:D D8
U 1 1 5C702888
P 1950 1450
F 0 "D8" H 2050 1400 50  0000 C CNN
F 1 "S3G-13-F" H 2000 1300 50  0001 C CNN
F 2 "cr-10s-connector-board:DO-214AB" H 1950 1450 50  0001 C CNN
F 3 "~" H 1950 1450 50  0001 C CNN
F 4 "DigiKey" H 1950 1450 50  0001 C CNN "Supplier"
F 5 "S3G-FDICT-ND " H 1950 1450 50  0001 C CNN "Supplier Part Number"
	1    1950 1450
	1    0    0    -1  
$EndComp
Wire Wire Line
	2100 1250 2200 1250
Wire Wire Line
	2200 1450 2100 1450
Wire Wire Line
	2500 1250 2500 1350
$Comp
L Connector_Generic:Conn_01x04 J2
U 1 1 5C7028FC
P 1300 1050
F 0 "J2" V 1400 1000 50  0000 C CNN
F 1 "B4B-XH-A(LF)(SN) " H 1380 951 50  0001 L CNN
F 2 "" H 1300 1050 50  0001 C CNN
F 3 "~" H 1300 1050 50  0001 C CNN
F 4 "DigiKey" V 1300 1050 50  0001 C CNN "Supplier"
F 5 "455-2249-ND " V 1300 1050 50  0001 C CNN "Supplier Part Number"
	1    1300 1050
	-1   0    0    -1  
$EndComp
Wire Wire Line
	1500 950  1600 950 
Wire Wire Line
	1600 950  1600 800 
Wire Wire Line
	1600 800  1800 800 
Connection ~ 1800 800 
Wire Wire Line
	1800 800  1800 900 
Wire Wire Line
	1800 1250 1800 1350
Wire Wire Line
	1500 1250 1600 1250
Wire Wire Line
	1600 1250 1600 1350
Wire Wire Line
	1600 1350 1800 1350
Connection ~ 1800 1350
Wire Wire Line
	1800 1350 1800 1450
Wire Wire Line
	2500 800  2600 800 
Wire Wire Line
	2600 800  2600 950 
Wire Wire Line
	2600 950  2750 950 
Connection ~ 2500 800 
Wire Wire Line
	2500 800  2500 900 
Wire Wire Line
	2500 1350 2600 1350
Wire Wire Line
	2600 1350 2600 1250
Wire Wire Line
	2600 1250 2750 1250
Connection ~ 2500 1350
Wire Wire Line
	2500 1350 2500 1450
Wire Wire Line
	1500 1050 2750 1050
Wire Wire Line
	2750 1150 1500 1150
$Comp
L Device:D D9
U 1 1 5C70400C
P 1950 2400
F 0 "D9" H 1850 2350 50  0000 C CNN
F 1 "S3G-13-F" H 1950 2275 50  0001 C CNN
F 2 "cr-10s-connector-board:DO-214AB" H 1950 2400 50  0001 C CNN
F 3 "~" H 1950 2400 50  0001 C CNN
F 4 "DigiKey" H 1950 2400 50  0001 C CNN "Supplier"
F 5 "S3G-FDICT-ND " H 1950 2400 50  0001 C CNN "Supplier Part Number"
	1    1950 2400
	-1   0    0    1   
$EndComp
$Comp
L Device:D D21
U 1 1 5C704014
P 2350 2400
F 0 "D21" H 2200 2350 50  0000 C CNN
F 1 "S3G-13-F" H 2350 2275 50  0001 C CNN
F 2 "cr-10s-connector-board:DO-214AB" H 2350 2400 50  0001 C CNN
F 3 "~" H 2350 2400 50  0001 C CNN
F 4 "DigiKey" H 2350 2400 50  0001 C CNN "Supplier"
F 5 "S3G-FDICT-ND " H 2350 2400 50  0001 C CNN "Supplier Part Number"
	1    2350 2400
	-1   0    0    1   
$EndComp
$Comp
L Device:D D22
U 1 1 5C70401C
P 2350 2600
F 0 "D22" H 2500 2550 50  0000 C CNN
F 1 "S3G-13-F" H 2400 2450 50  0001 C CNN
F 2 "cr-10s-connector-board:DO-214AB" H 2350 2600 50  0001 C CNN
F 3 "~" H 2350 2600 50  0001 C CNN
F 4 "DigiKey" H 2350 2600 50  0001 C CNN "Supplier"
F 5 "S3G-FDICT-ND " H 2350 2600 50  0001 C CNN "Supplier Part Number"
	1    2350 2600
	1    0    0    -1  
$EndComp
$Comp
L Device:D D10
U 1 1 5C704024
P 1950 2600
F 0 "D10" H 2100 2550 50  0000 C CNN
F 1 "S3G-13-F" H 2000 2450 50  0001 C CNN
F 2 "cr-10s-connector-board:DO-214AB" H 1950 2600 50  0001 C CNN
F 3 "~" H 1950 2600 50  0001 C CNN
F 4 "DigiKey" H 1950 2600 50  0001 C CNN "Supplier"
F 5 "S3G-FDICT-ND " H 1950 2600 50  0001 C CNN "Supplier Part Number"
	1    1950 2600
	1    0    0    -1  
$EndComp
Wire Wire Line
	2100 2400 2200 2400
Wire Wire Line
	2200 2600 2100 2600
Wire Wire Line
	2500 2400 2500 2500
Wire Wire Line
	1800 2400 1800 2500
$Comp
L Device:D D11
U 1 1 5C704030
P 1950 2950
F 0 "D11" H 1800 2900 50  0000 C CNN
F 1 "S3G-13-F" H 1950 2825 50  0001 C CNN
F 2 "cr-10s-connector-board:DO-214AB" H 1950 2950 50  0001 C CNN
F 3 "~" H 1950 2950 50  0001 C CNN
F 4 "DigiKey" H 1950 2950 50  0001 C CNN "Supplier"
F 5 "S3G-FDICT-ND " H 1950 2950 50  0001 C CNN "Supplier Part Number"
	1    1950 2950
	-1   0    0    1   
$EndComp
$Comp
L Device:D D23
U 1 1 5C704038
P 2350 2950
F 0 "D23" H 2200 2900 50  0000 C CNN
F 1 "S3G-13-F" H 2350 2825 50  0001 C CNN
F 2 "cr-10s-connector-board:DO-214AB" H 2350 2950 50  0001 C CNN
F 3 "~" H 2350 2950 50  0001 C CNN
F 4 "DigiKey" H 2350 2950 50  0001 C CNN "Supplier"
F 5 "S3G-FDICT-ND " H 2350 2950 50  0001 C CNN "Supplier Part Number"
	1    2350 2950
	-1   0    0    1   
$EndComp
$Comp
L Device:D D24
U 1 1 5C704040
P 2350 3150
F 0 "D24" H 2500 3100 50  0000 C CNN
F 1 "S3G-13-F" H 2400 3000 50  0001 C CNN
F 2 "cr-10s-connector-board:DO-214AB" H 2350 3150 50  0001 C CNN
F 3 "~" H 2350 3150 50  0001 C CNN
F 4 "DigiKey" H 2350 3150 50  0001 C CNN "Supplier"
F 5 "S3G-FDICT-ND " H 2350 3150 50  0001 C CNN "Supplier Part Number"
	1    2350 3150
	1    0    0    -1  
$EndComp
$Comp
L Device:D D12
U 1 1 5C704048
P 1950 3150
F 0 "D12" H 2100 3100 50  0000 C CNN
F 1 "S3G-13-F" H 2000 3000 50  0001 C CNN
F 2 "cr-10s-connector-board:DO-214AB" H 1950 3150 50  0001 C CNN
F 3 "~" H 1950 3150 50  0001 C CNN
F 4 "DigiKey" H 1950 3150 50  0001 C CNN "Supplier"
F 5 "S3G-FDICT-ND " H 1950 3150 50  0001 C CNN "Supplier Part Number"
	1    1950 3150
	1    0    0    -1  
$EndComp
Wire Wire Line
	2100 2950 2200 2950
Wire Wire Line
	2200 3150 2100 3150
Wire Wire Line
	2500 2950 2500 3050
Wire Wire Line
	1500 2650 1600 2650
Wire Wire Line
	1600 2650 1600 2500
Wire Wire Line
	1600 2500 1800 2500
Connection ~ 1800 2500
Wire Wire Line
	1800 2500 1800 2600
Wire Wire Line
	1800 2950 1800 3050
Wire Wire Line
	1500 2950 1600 2950
Wire Wire Line
	1600 2950 1600 3050
Wire Wire Line
	1600 3050 1800 3050
Connection ~ 1800 3050
Wire Wire Line
	1800 3050 1800 3150
Wire Wire Line
	2500 2500 2600 2500
Wire Wire Line
	2600 2500 2600 2650
Wire Wire Line
	2600 2650 2750 2650
Connection ~ 2500 2500
Wire Wire Line
	2500 2500 2500 2600
Wire Wire Line
	2500 3050 2600 3050
Wire Wire Line
	2600 3050 2600 2950
Wire Wire Line
	2600 2950 2750 2950
Connection ~ 2500 3050
Wire Wire Line
	2500 3050 2500 3150
Wire Wire Line
	1500 2750 2750 2750
Wire Wire Line
	2750 2850 1500 2850
$Comp
L Device:D D1
U 1 1 5C704E78
P 1900 4050
F 0 "D1" H 1800 4000 50  0000 C CNN
F 1 "S3G-13-F" H 1900 3925 50  0001 C CNN
F 2 "cr-10s-connector-board:DO-214AB" H 1900 4050 50  0001 C CNN
F 3 "~" H 1900 4050 50  0001 C CNN
F 4 "DigiKey" H 1900 4050 50  0001 C CNN "Supplier"
F 5 "S3G-FDICT-ND " H 1900 4050 50  0001 C CNN "Supplier Part Number"
	1    1900 4050
	-1   0    0    1   
$EndComp
$Comp
L Device:D D13
U 1 1 5C704E80
P 2300 4050
F 0 "D13" H 2150 4000 50  0000 C CNN
F 1 "S3G-13-F" H 2300 3925 50  0001 C CNN
F 2 "cr-10s-connector-board:DO-214AB" H 2300 4050 50  0001 C CNN
F 3 "~" H 2300 4050 50  0001 C CNN
F 4 "DigiKey" H 2300 4050 50  0001 C CNN "Supplier"
F 5 "S3G-FDICT-ND " H 2300 4050 50  0001 C CNN "Supplier Part Number"
	1    2300 4050
	-1   0    0    1   
$EndComp
$Comp
L Device:D D14
U 1 1 5C704E88
P 2300 4250
F 0 "D14" H 2450 4200 50  0000 C CNN
F 1 "S3G-13-F" H 2350 4100 50  0001 C CNN
F 2 "cr-10s-connector-board:DO-214AB" H 2300 4250 50  0001 C CNN
F 3 "~" H 2300 4250 50  0001 C CNN
F 4 "DigiKey" H 2300 4250 50  0001 C CNN "Supplier"
F 5 "S3G-FDICT-ND " H 2300 4250 50  0001 C CNN "Supplier Part Number"
	1    2300 4250
	1    0    0    -1  
$EndComp
$Comp
L Device:D D2
U 1 1 5C704E90
P 1900 4250
F 0 "D2" H 2000 4200 50  0000 C CNN
F 1 "S3G-13-F" H 1950 4100 50  0001 C CNN
F 2 "cr-10s-connector-board:DO-214AB" H 1900 4250 50  0001 C CNN
F 3 "~" H 1900 4250 50  0001 C CNN
F 4 "DigiKey" H 1900 4250 50  0001 C CNN "Supplier"
F 5 "S3G-FDICT-ND " H 1900 4250 50  0001 C CNN "Supplier Part Number"
	1    1900 4250
	1    0    0    -1  
$EndComp
Wire Wire Line
	2050 4050 2150 4050
Wire Wire Line
	2150 4250 2050 4250
Wire Wire Line
	2450 4050 2450 4150
Wire Wire Line
	1750 4050 1750 4150
$Comp
L Device:D D3
U 1 1 5C704E9C
P 1900 4600
F 0 "D3" H 1800 4550 50  0000 C CNN
F 1 "S3G-13-F" H 1900 4475 50  0001 C CNN
F 2 "cr-10s-connector-board:DO-214AB" H 1900 4600 50  0001 C CNN
F 3 "~" H 1900 4600 50  0001 C CNN
F 4 "DigiKey" H 1900 4600 50  0001 C CNN "Supplier"
F 5 "S3G-FDICT-ND " H 1900 4600 50  0001 C CNN "Supplier Part Number"
	1    1900 4600
	-1   0    0    1   
$EndComp
$Comp
L Device:D D15
U 1 1 5C704EA4
P 2300 4600
F 0 "D15" H 2150 4550 50  0000 C CNN
F 1 "S3G-13-F" H 2300 4475 50  0001 C CNN
F 2 "cr-10s-connector-board:DO-214AB" H 2300 4600 50  0001 C CNN
F 3 "~" H 2300 4600 50  0001 C CNN
F 4 "DigiKey" H 2300 4600 50  0001 C CNN "Supplier"
F 5 "S3G-FDICT-ND " H 2300 4600 50  0001 C CNN "Supplier Part Number"
	1    2300 4600
	-1   0    0    1   
$EndComp
$Comp
L Device:D D16
U 1 1 5C704EAC
P 2300 4800
F 0 "D16" H 2450 4750 50  0000 C CNN
F 1 "S3G-13-F" H 2350 4650 50  0001 C CNN
F 2 "cr-10s-connector-board:DO-214AB" H 2300 4800 50  0001 C CNN
F 3 "~" H 2300 4800 50  0001 C CNN
F 4 "DigiKey" H 2300 4800 50  0001 C CNN "Supplier"
F 5 "S3G-FDICT-ND " H 2300 4800 50  0001 C CNN "Supplier Part Number"
	1    2300 4800
	1    0    0    -1  
$EndComp
$Comp
L Device:D D4
U 1 1 5C704EB4
P 1900 4800
F 0 "D4" H 2000 4750 50  0000 C CNN
F 1 "S3G-13-F" H 1950 4650 50  0001 C CNN
F 2 "cr-10s-connector-board:DO-214AB" H 1900 4800 50  0001 C CNN
F 3 "~" H 1900 4800 50  0001 C CNN
F 4 "DigiKey" H 1900 4800 50  0001 C CNN "Supplier"
F 5 "S3G-FDICT-ND " H 1900 4800 50  0001 C CNN "Supplier Part Number"
	1    1900 4800
	1    0    0    -1  
$EndComp
Wire Wire Line
	2050 4600 2150 4600
Wire Wire Line
	2150 4800 2050 4800
Wire Wire Line
	2450 4600 2450 4700
Wire Wire Line
	1450 4300 1550 4300
Wire Wire Line
	1550 4300 1550 4150
Wire Wire Line
	1550 4150 1750 4150
Connection ~ 1750 4150
Wire Wire Line
	1750 4150 1750 4250
Wire Wire Line
	1750 4600 1750 4700
Wire Wire Line
	1450 4600 1550 4600
Wire Wire Line
	1550 4600 1550 4700
Wire Wire Line
	1550 4700 1750 4700
Connection ~ 1750 4700
Wire Wire Line
	1750 4700 1750 4800
Wire Wire Line
	2450 4150 2550 4150
Wire Wire Line
	2550 4150 2550 4300
Wire Wire Line
	2550 4300 2700 4300
Connection ~ 2450 4150
Wire Wire Line
	2450 4150 2450 4250
Wire Wire Line
	2450 4700 2550 4700
Wire Wire Line
	2550 4700 2550 4600
Wire Wire Line
	2550 4600 2700 4600
Connection ~ 2450 4700
Wire Wire Line
	2450 4700 2450 4800
Wire Wire Line
	1450 4400 2700 4400
Wire Wire Line
	2700 4500 1450 4500
Text Notes 950  1450 1    50   ~ 0
X Axis
Wire Notes Line
	1000 550  3200 550 
Text Notes 950  3100 1    50   ~ 0
Y Axis
Wire Notes Line
	1000 2250 3200 2250
Text Notes 950  4800 1    50   ~ 0
Z Axis
$Comp
L Connector_Generic:Conn_01x03 J9
U 1 1 5C721859
P 1900 1900
F 0 "J9" V 2000 1900 50  0000 C CNN
F 1 "B3B-XH-A(LF)(SN) " H 1980 1851 50  0001 L CNN
F 2 "" H 1900 1900 50  0001 C CNN
F 3 "~" H 1900 1900 50  0001 C CNN
F 4 "DigiKey" V 1900 1900 50  0001 C CNN "Supplier"
F 5 "455-2248-ND " V 1900 1900 50  0001 C CNN "Supplier Part Number"
	1    1900 1900
	-1   0    0    1   
$EndComp
Wire Wire Line
	2100 1800 2250 1800
Wire Wire Line
	2100 1900 2250 1900
Wire Wire Line
	2100 2000 2250 2000
Text Notes 2050 2100 0    50   ~ 0
Endstop
Wire Notes Line
	3200 550  3200 2200
Wire Notes Line
	1000 550  1000 2200
Wire Wire Line
	2100 3450 2250 3450
Wire Wire Line
	2100 3550 2250 3550
Wire Wire Line
	2100 3650 2250 3650
Text Notes 2050 3750 0    50   ~ 0
Endstop
Wire Notes Line
	1000 3800 3200 3800
Wire Notes Line
	3200 2250 3200 3800
Wire Notes Line
	1000 2250 1000 3800
Wire Wire Line
	2000 5100 2150 5100
Wire Wire Line
	2000 5200 2150 5200
Wire Wire Line
	2000 5300 2150 5300
Text Notes 1950 5400 0    50   ~ 0
Endstop
Wire Notes Line
	1000 3850 1000 5450
$Comp
L Device:D D25
U 1 1 5C74E359
P 1900 5750
F 0 "D25" H 1800 5700 50  0000 C CNN
F 1 "S3G-13-F" H 1900 5625 50  0001 C CNN
F 2 "cr-10s-connector-board:DO-214AB" H 1900 5750 50  0001 C CNN
F 3 "~" H 1900 5750 50  0001 C CNN
F 4 "DigiKey" H 1900 5750 50  0001 C CNN "Supplier"
F 5 "S3G-FDICT-ND " H 1900 5750 50  0001 C CNN "Supplier Part Number"
	1    1900 5750
	-1   0    0    1   
$EndComp
$Comp
L Device:D D29
U 1 1 5C74E361
P 2300 5750
F 0 "D29" H 2150 5700 50  0000 C CNN
F 1 "S3G-13-F" H 2300 5625 50  0001 C CNN
F 2 "cr-10s-connector-board:DO-214AB" H 2300 5750 50  0001 C CNN
F 3 "~" H 2300 5750 50  0001 C CNN
F 4 "DigiKey" H 2300 5750 50  0001 C CNN "Supplier"
F 5 "S3G-FDICT-ND " H 2300 5750 50  0001 C CNN "Supplier Part Number"
	1    2300 5750
	-1   0    0    1   
$EndComp
$Comp
L Device:D D30
U 1 1 5C74E369
P 2300 5950
F 0 "D30" H 2450 5900 50  0000 C CNN
F 1 "S3G-13-F" H 2350 5800 50  0001 C CNN
F 2 "cr-10s-connector-board:DO-214AB" H 2300 5950 50  0001 C CNN
F 3 "~" H 2300 5950 50  0001 C CNN
F 4 "DigiKey" H 2300 5950 50  0001 C CNN "Supplier"
F 5 "S3G-FDICT-ND " H 2300 5950 50  0001 C CNN "Supplier Part Number"
	1    2300 5950
	1    0    0    -1  
$EndComp
$Comp
L Device:D D26
U 1 1 5C74E371
P 1900 5950
F 0 "D26" H 2000 5900 50  0000 C CNN
F 1 "S3G-13-F" H 1950 5800 50  0001 C CNN
F 2 "cr-10s-connector-board:DO-214AB" H 1900 5950 50  0001 C CNN
F 3 "~" H 1900 5950 50  0001 C CNN
F 4 "DigiKey" H 1900 5950 50  0001 C CNN "Supplier"
F 5 "S3G-FDICT-ND " H 1900 5950 50  0001 C CNN "Supplier Part Number"
	1    1900 5950
	1    0    0    -1  
$EndComp
Wire Wire Line
	2050 5750 2150 5750
Wire Wire Line
	2150 5950 2050 5950
Wire Wire Line
	2450 5750 2450 5850
Wire Wire Line
	1750 5750 1750 5850
$Comp
L Device:D D27
U 1 1 5C74E37D
P 1900 6300
F 0 "D27" H 1800 6250 50  0000 C CNN
F 1 "S3G-13-F" H 1900 6175 50  0001 C CNN
F 2 "cr-10s-connector-board:DO-214AB" H 1900 6300 50  0001 C CNN
F 3 "~" H 1900 6300 50  0001 C CNN
F 4 "DigiKey" H 1900 6300 50  0001 C CNN "Supplier"
F 5 "S3G-FDICT-ND " H 1900 6300 50  0001 C CNN "Supplier Part Number"
	1    1900 6300
	-1   0    0    1   
$EndComp
$Comp
L Device:D D31
U 1 1 5C74E385
P 2300 6300
F 0 "D31" H 2150 6250 50  0000 C CNN
F 1 "S3G-13-F" H 2300 6175 50  0001 C CNN
F 2 "cr-10s-connector-board:DO-214AB" H 2300 6300 50  0001 C CNN
F 3 "~" H 2300 6300 50  0001 C CNN
F 4 "DigiKey" H 2300 6300 50  0001 C CNN "Supplier"
F 5 "S3G-FDICT-ND " H 2300 6300 50  0001 C CNN "Supplier Part Number"
	1    2300 6300
	-1   0    0    1   
$EndComp
$Comp
L Device:D D32
U 1 1 5C74E38D
P 2300 6500
F 0 "D32" H 2450 6450 50  0000 C CNN
F 1 "S3G-13-F" H 2350 6350 50  0001 C CNN
F 2 "cr-10s-connector-board:DO-214AB" H 2300 6500 50  0001 C CNN
F 3 "~" H 2300 6500 50  0001 C CNN
F 4 "DigiKey" H 2300 6500 50  0001 C CNN "Supplier"
F 5 "S3G-FDICT-ND " H 2300 6500 50  0001 C CNN "Supplier Part Number"
	1    2300 6500
	1    0    0    -1  
$EndComp
$Comp
L Device:D D28
U 1 1 5C74E395
P 1900 6500
F 0 "D28" H 2000 6450 50  0000 C CNN
F 1 "S3G-13-F" H 1950 6350 50  0001 C CNN
F 2 "cr-10s-connector-board:DO-214AB" H 1900 6500 50  0001 C CNN
F 3 "~" H 1900 6500 50  0001 C CNN
F 4 "DigiKey" H 1900 6500 50  0001 C CNN "Supplier"
F 5 "S3G-FDICT-ND " H 1900 6500 50  0001 C CNN "Supplier Part Number"
	1    1900 6500
	1    0    0    -1  
$EndComp
Wire Wire Line
	2050 6300 2150 6300
Wire Wire Line
	2150 6500 2050 6500
Wire Wire Line
	2450 6300 2450 6400
Wire Wire Line
	1450 6000 1550 6000
Wire Wire Line
	1550 6000 1550 5850
Wire Wire Line
	1550 5850 1750 5850
Connection ~ 1750 5850
Wire Wire Line
	1750 5850 1750 5950
Wire Wire Line
	1750 6300 1750 6400
Wire Wire Line
	1450 6300 1550 6300
Wire Wire Line
	1550 6300 1550 6400
Wire Wire Line
	1550 6400 1750 6400
Connection ~ 1750 6400
Wire Wire Line
	1750 6400 1750 6500
Wire Wire Line
	2450 5850 2550 5850
Wire Wire Line
	2550 5850 2550 6000
Wire Wire Line
	2550 6000 2700 6000
Connection ~ 2450 5850
Wire Wire Line
	2450 5850 2450 5950
Wire Wire Line
	2450 6400 2550 6400
Wire Wire Line
	2550 6400 2550 6300
Wire Wire Line
	2550 6300 2700 6300
Connection ~ 2450 6400
Wire Wire Line
	2450 6400 2450 6500
Wire Wire Line
	1450 6100 2700 6100
Wire Wire Line
	2700 6200 1450 6200
Wire Notes Line
	1000 5550 3200 5550
Wire Notes Line
	1000 5550 1000 6750
Wire Notes Line
	1000 6750 3200 6750
Wire Notes Line
	3200 5550 3200 6750
$Comp
L Device:D D33
U 1 1 5C7612D0
P 4350 5750
F 0 "D33" H 4200 5700 50  0000 C CNN
F 1 "S3G-13-F" H 4350 5625 50  0001 C CNN
F 2 "cr-10s-connector-board:DO-214AB" H 4350 5750 50  0001 C CNN
F 3 "~" H 4350 5750 50  0001 C CNN
F 4 "DigiKey" H 4350 5750 50  0001 C CNN "Supplier"
F 5 "S3G-FDICT-ND " H 4350 5750 50  0001 C CNN "Supplier Part Number"
	1    4350 5750
	-1   0    0    1   
$EndComp
$Comp
L Device:D D37
U 1 1 5C7612D8
P 4750 5750
F 0 "D37" H 4600 5700 50  0000 C CNN
F 1 "S3G-13-F" H 4750 5625 50  0001 C CNN
F 2 "cr-10s-connector-board:DO-214AB" H 4750 5750 50  0001 C CNN
F 3 "~" H 4750 5750 50  0001 C CNN
F 4 "DigiKey" H 4750 5750 50  0001 C CNN "Supplier"
F 5 "S3G-FDICT-ND " H 4750 5750 50  0001 C CNN "Supplier Part Number"
	1    4750 5750
	-1   0    0    1   
$EndComp
$Comp
L Device:D D38
U 1 1 5C7612E0
P 4750 5950
F 0 "D38" H 4900 5900 50  0000 C CNN
F 1 "S3G-13-F" H 4800 5800 50  0001 C CNN
F 2 "cr-10s-connector-board:DO-214AB" H 4750 5950 50  0001 C CNN
F 3 "~" H 4750 5950 50  0001 C CNN
F 4 "DigiKey" H 4750 5950 50  0001 C CNN "Supplier"
F 5 "S3G-FDICT-ND " H 4750 5950 50  0001 C CNN "Supplier Part Number"
	1    4750 5950
	1    0    0    -1  
$EndComp
$Comp
L Device:D D34
U 1 1 5C7612E8
P 4350 5950
F 0 "D34" H 4500 5900 50  0000 C CNN
F 1 "S3G-13-F" H 4400 5800 50  0001 C CNN
F 2 "cr-10s-connector-board:DO-214AB" H 4350 5950 50  0001 C CNN
F 3 "~" H 4350 5950 50  0001 C CNN
F 4 "DigiKey" H 4350 5950 50  0001 C CNN "Supplier"
F 5 "S3G-FDICT-ND " H 4350 5950 50  0001 C CNN "Supplier Part Number"
	1    4350 5950
	1    0    0    -1  
$EndComp
Wire Wire Line
	4500 5750 4600 5750
Wire Wire Line
	4600 5950 4500 5950
Wire Wire Line
	4900 5750 4900 5850
Wire Wire Line
	4200 5750 4200 5850
$Comp
L Device:D D35
U 1 1 5C7612F4
P 4350 6300
F 0 "D35" H 4200 6250 50  0000 C CNN
F 1 "S3G-13-F" H 4350 6175 50  0001 C CNN
F 2 "cr-10s-connector-board:DO-214AB" H 4350 6300 50  0001 C CNN
F 3 "~" H 4350 6300 50  0001 C CNN
F 4 "DigiKey" H 4350 6300 50  0001 C CNN "Supplier"
F 5 "S3G-FDICT-ND " H 4350 6300 50  0001 C CNN "Supplier Part Number"
	1    4350 6300
	-1   0    0    1   
$EndComp
$Comp
L Device:D D39
U 1 1 5C7612FC
P 4750 6300
F 0 "D39" H 4600 6250 50  0000 C CNN
F 1 "S3G-13-F" H 4750 6175 50  0001 C CNN
F 2 "cr-10s-connector-board:DO-214AB" H 4750 6300 50  0001 C CNN
F 3 "~" H 4750 6300 50  0001 C CNN
F 4 "DigiKey" H 4750 6300 50  0001 C CNN "Supplier"
F 5 "S3G-FDICT-ND " H 4750 6300 50  0001 C CNN "Supplier Part Number"
	1    4750 6300
	-1   0    0    1   
$EndComp
$Comp
L Device:D D40
U 1 1 5C761304
P 4750 6500
F 0 "D40" H 4900 6450 50  0000 C CNN
F 1 "S3G-13-F" H 4800 6350 50  0001 C CNN
F 2 "cr-10s-connector-board:DO-214AB" H 4750 6500 50  0001 C CNN
F 3 "~" H 4750 6500 50  0001 C CNN
F 4 "DigiKey" H 4750 6500 50  0001 C CNN "Supplier"
F 5 "S3G-FDICT-ND " H 4750 6500 50  0001 C CNN "Supplier Part Number"
	1    4750 6500
	1    0    0    -1  
$EndComp
$Comp
L Device:D D36
U 1 1 5C76130C
P 4350 6500
F 0 "D36" H 4500 6450 50  0000 C CNN
F 1 "S3G-13-F" H 4400 6350 50  0001 C CNN
F 2 "cr-10s-connector-board:DO-214AB" H 4350 6500 50  0001 C CNN
F 3 "~" H 4350 6500 50  0001 C CNN
F 4 "DigiKey" H 4350 6500 50  0001 C CNN "Supplier"
F 5 "S3G-FDICT-ND " H 4350 6500 50  0001 C CNN "Supplier Part Number"
	1    4350 6500
	1    0    0    -1  
$EndComp
Wire Wire Line
	4500 6300 4600 6300
Wire Wire Line
	4600 6500 4500 6500
Wire Wire Line
	4900 6300 4900 6400
Wire Wire Line
	3900 6000 4000 6000
Wire Wire Line
	4000 6000 4000 5850
Wire Wire Line
	4000 5850 4200 5850
Connection ~ 4200 5850
Wire Wire Line
	4200 5850 4200 5950
Wire Wire Line
	4200 6300 4200 6400
Wire Wire Line
	3900 6300 4000 6300
Wire Wire Line
	4000 6300 4000 6400
Wire Wire Line
	4000 6400 4200 6400
Connection ~ 4200 6400
Wire Wire Line
	4200 6400 4200 6500
Wire Wire Line
	4900 5850 5000 5850
Wire Wire Line
	5000 5850 5000 6000
Wire Wire Line
	5000 6000 5150 6000
Connection ~ 4900 5850
Wire Wire Line
	4900 5850 4900 5950
Wire Wire Line
	4900 6400 5000 6400
Wire Wire Line
	5000 6400 5000 6300
Wire Wire Line
	5000 6300 5150 6300
Connection ~ 4900 6400
Wire Wire Line
	4900 6400 4900 6500
Wire Wire Line
	3900 6100 5150 6100
Wire Wire Line
	5150 6200 3900 6200
Wire Notes Line
	3450 5550 5650 5550
Wire Notes Line
	3450 5550 3450 6750
Wire Notes Line
	3450 6750 5650 6750
Wire Notes Line
	5650 5550 5650 6750
Text Notes 950  6300 1    50   ~ 0
Extruder 0
Text Notes 3400 6300 1    50   ~ 0
Extruder 1
$Comp
L Device:D D41
U 1 1 5C76BC3E
P 4350 4050
F 0 "D41" H 4200 4000 50  0000 C CNN
F 1 "S3G-13-F" H 4350 3925 50  0001 C CNN
F 2 "cr-10s-connector-board:DO-214AB" H 4350 4050 50  0001 C CNN
F 3 "~" H 4350 4050 50  0001 C CNN
F 4 "DigiKey" H 4350 4050 50  0001 C CNN "Supplier"
F 5 "S3G-FDICT-ND " H 4350 4050 50  0001 C CNN "Supplier Part Number"
	1    4350 4050
	-1   0    0    1   
$EndComp
$Comp
L Device:D D45
U 1 1 5C76BC46
P 4750 4050
F 0 "D45" H 4600 4000 50  0000 C CNN
F 1 "S3G-13-F" H 4750 3925 50  0001 C CNN
F 2 "cr-10s-connector-board:DO-214AB" H 4750 4050 50  0001 C CNN
F 3 "~" H 4750 4050 50  0001 C CNN
F 4 "DigiKey" H 4750 4050 50  0001 C CNN "Supplier"
F 5 "S3G-FDICT-ND " H 4750 4050 50  0001 C CNN "Supplier Part Number"
	1    4750 4050
	-1   0    0    1   
$EndComp
$Comp
L Device:D D46
U 1 1 5C76BC4E
P 4750 4250
F 0 "D46" H 4900 4200 50  0000 C CNN
F 1 "S3G-13-F" H 4800 4100 50  0001 C CNN
F 2 "cr-10s-connector-board:DO-214AB" H 4750 4250 50  0001 C CNN
F 3 "~" H 4750 4250 50  0001 C CNN
F 4 "DigiKey" H 4750 4250 50  0001 C CNN "Supplier"
F 5 "S3G-FDICT-ND " H 4750 4250 50  0001 C CNN "Supplier Part Number"
	1    4750 4250
	1    0    0    -1  
$EndComp
$Comp
L Device:D D42
U 1 1 5C76BC56
P 4350 4250
F 0 "D42" H 4500 4200 50  0000 C CNN
F 1 "S3G-13-F" H 4400 4100 50  0001 C CNN
F 2 "cr-10s-connector-board:DO-214AB" H 4350 4250 50  0001 C CNN
F 3 "~" H 4350 4250 50  0001 C CNN
F 4 "DigiKey" H 4350 4250 50  0001 C CNN "Supplier"
F 5 "S3G-FDICT-ND " H 4350 4250 50  0001 C CNN "Supplier Part Number"
	1    4350 4250
	1    0    0    -1  
$EndComp
Wire Wire Line
	4500 4050 4600 4050
Wire Wire Line
	4600 4250 4500 4250
Wire Wire Line
	4900 4050 4900 4150
Wire Wire Line
	4200 4050 4200 4150
$Comp
L Device:D D43
U 1 1 5C76BC62
P 4350 4600
F 0 "D43" H 4200 4550 50  0000 C CNN
F 1 "S3G-13-F" H 4350 4475 50  0001 C CNN
F 2 "cr-10s-connector-board:DO-214AB" H 4350 4600 50  0001 C CNN
F 3 "~" H 4350 4600 50  0001 C CNN
F 4 "DigiKey" H 4350 4600 50  0001 C CNN "Supplier"
F 5 "S3G-FDICT-ND " H 4350 4600 50  0001 C CNN "Supplier Part Number"
	1    4350 4600
	-1   0    0    1   
$EndComp
$Comp
L Device:D D47
U 1 1 5C76BC6A
P 4750 4600
F 0 "D47" H 4600 4550 50  0000 C CNN
F 1 "S3G-13-F" H 4750 4475 50  0001 C CNN
F 2 "cr-10s-connector-board:DO-214AB" H 4750 4600 50  0001 C CNN
F 3 "~" H 4750 4600 50  0001 C CNN
F 4 "DigiKey" H 4750 4600 50  0001 C CNN "Supplier"
F 5 "S3G-FDICT-ND " H 4750 4600 50  0001 C CNN "Supplier Part Number"
	1    4750 4600
	-1   0    0    1   
$EndComp
$Comp
L Device:D D48
U 1 1 5C76BC72
P 4750 4800
F 0 "D48" H 4900 4750 50  0000 C CNN
F 1 "S3G-13-F" H 4800 4650 50  0001 C CNN
F 2 "cr-10s-connector-board:DO-214AB" H 4750 4800 50  0001 C CNN
F 3 "~" H 4750 4800 50  0001 C CNN
F 4 "DigiKey" H 4750 4800 50  0001 C CNN "Supplier"
F 5 "S3G-FDICT-ND " H 4750 4800 50  0001 C CNN "Supplier Part Number"
	1    4750 4800
	1    0    0    -1  
$EndComp
$Comp
L Device:D D44
U 1 1 5C76BC7A
P 4350 4800
F 0 "D44" H 4500 4750 50  0000 C CNN
F 1 "S3G-13-F" H 4400 4650 50  0001 C CNN
F 2 "cr-10s-connector-board:DO-214AB" H 4350 4800 50  0001 C CNN
F 3 "~" H 4350 4800 50  0001 C CNN
F 4 "DigiKey" H 4350 4800 50  0001 C CNN "Supplier"
F 5 "S3G-FDICT-ND " H 4350 4800 50  0001 C CNN "Supplier Part Number"
	1    4350 4800
	1    0    0    -1  
$EndComp
Wire Wire Line
	4500 4600 4600 4600
Wire Wire Line
	4600 4800 4500 4800
Wire Wire Line
	4900 4600 4900 4700
Wire Wire Line
	3900 4300 4000 4300
Wire Wire Line
	4000 4300 4000 4150
Wire Wire Line
	4000 4150 4200 4150
Connection ~ 4200 4150
Wire Wire Line
	4200 4150 4200 4250
Wire Wire Line
	4200 4600 4200 4700
Wire Wire Line
	3900 4600 4000 4600
Wire Wire Line
	4000 4600 4000 4700
Wire Wire Line
	4000 4700 4200 4700
Connection ~ 4200 4700
Wire Wire Line
	4200 4700 4200 4800
Wire Wire Line
	4900 4150 5000 4150
Wire Wire Line
	5000 4150 5000 4300
Wire Wire Line
	5000 4300 5150 4300
Connection ~ 4900 4150
Wire Wire Line
	4900 4150 4900 4250
Wire Wire Line
	4900 4700 5000 4700
Wire Wire Line
	5000 4700 5000 4600
Wire Wire Line
	5000 4600 5150 4600
Connection ~ 4900 4700
Wire Wire Line
	4900 4700 4900 4800
Wire Wire Line
	3900 4400 5150 4400
Wire Wire Line
	5150 4500 3900 4500
Wire Notes Line
	5650 3850 5650 5450
Wire Notes Line
	1000 3850 5650 3850
Wire Notes Line
	1000 5450 5650 5450
Wire Wire Line
	4000 700  4200 700 
Wire Wire Line
	4000 800  4150 800 
Wire Wire Line
	4000 900  4100 900 
Wire Notes Line
	3200 2200 1000 2200
Wire Notes Line
	3500 550  4650 550 
Text Notes 3450 1250 1    50   ~ 0
Filament Sensor
$Comp
L Connector_Generic:Conn_01x02 J1
U 1 1 5C7CA70A
P 3750 1650
F 0 "J1" V 3850 1600 50  0000 C CNN
F 1 "B2B-XH-A(LF)(SN) " H 3670 1416 50  0001 C CNN
F 2 "" H 3750 1650 50  0001 C CNN
F 3 "~" H 3750 1650 50  0001 C CNN
F 4 "DigiKey" V 3750 1650 50  0001 C CNN "Supplier"
F 5 "455-2247-ND" V 3750 1650 50  0001 C CNN "Supplier Part Number"
	1    3750 1650
	-1   0    0    1   
$EndComp
Wire Notes Line
	3500 1400 4650 1400
Wire Notes Line
	4650 1400 4650 1800
Wire Notes Line
	4650 1800 3500 1800
Wire Notes Line
	3500 1800 3500 1400
Text Notes 3450 1800 1    50   ~ 0
Fan/Laser
Wire Wire Line
	3950 1550 4100 1550
Wire Wire Line
	3950 1650 4100 1650
$Comp
L Connector:Conn_01x02_Male J3
U 1 1 5C7E8542
P 3900 1100
F 0 "J3" H 3850 1050 50  0000 C CNN
F 1 "Dummy" H 4000 950 50  0000 C CNN
F 2 "" H 3900 1100 50  0001 C CNN
F 3 "~" H 3900 1100 50  0001 C CNN
F 4 "DigiKey" H 3900 1100 50  0001 C CNN "Supplier"
F 5 "952-2262-ND " H 3900 1100 50  0001 C CNN "Supplier Part Number"
	1    3900 1100
	1    0    0    -1  
$EndComp
Wire Notes Line
	3500 1350 4650 1350
Wire Notes Line
	4650 550  4650 1350
Wire Notes Line
	3500 550  3500 1350
$Comp
L Connector_Generic:Conn_01x04 J6
U 1 1 5C81411D
P 1300 2750
F 0 "J6" V 1400 2700 50  0000 C CNN
F 1 "B4B-XH-A(LF)(SN) " H 1380 2651 50  0001 L CNN
F 2 "" H 1300 2750 50  0001 C CNN
F 3 "~" H 1300 2750 50  0001 C CNN
F 4 "DigiKey" V 1300 2750 50  0001 C CNN "Supplier"
F 5 "455-2249-ND " V 1300 2750 50  0001 C CNN "Supplier Part Number"
	1    1300 2750
	-1   0    0    -1  
$EndComp
$Comp
L Connector_Generic:Conn_01x04 J4
U 1 1 5C814363
P 1250 4400
F 0 "J4" V 1350 4350 50  0000 C CNN
F 1 "B4B-XH-A(LF)(SN) " H 1330 4301 50  0001 L CNN
F 2 "" H 1250 4400 50  0001 C CNN
F 3 "~" H 1250 4400 50  0001 C CNN
F 4 "DigiKey" V 1250 4400 50  0001 C CNN "Supplier"
F 5 "455-2249-ND " V 1250 4400 50  0001 C CNN "Supplier Part Number"
	1    1250 4400
	-1   0    0    -1  
$EndComp
$Comp
L Connector_Generic:Conn_01x04 J5
U 1 1 5C8148DE
P 1250 6100
F 0 "J5" V 1350 6050 50  0000 C CNN
F 1 "B4B-XH-A(LF)(SN) " H 1330 6001 50  0001 L CNN
F 2 "" H 1250 6100 50  0001 C CNN
F 3 "~" H 1250 6100 50  0001 C CNN
F 4 "DigiKey" V 1250 6100 50  0001 C CNN "Supplier"
F 5 "455-2249-ND " V 1250 6100 50  0001 C CNN "Supplier Part Number"
	1    1250 6100
	-1   0    0    -1  
$EndComp
$Comp
L Connector_Generic:Conn_01x04 J17
U 1 1 5C814992
P 3700 4400
F 0 "J17" V 3800 4350 50  0000 C CNN
F 1 "B4B-XH-A(LF)(SN) " H 3780 4301 50  0001 L CNN
F 2 "" H 3700 4400 50  0001 C CNN
F 3 "~" H 3700 4400 50  0001 C CNN
F 4 "DigiKey" V 3700 4400 50  0001 C CNN "Supplier"
F 5 "455-2249-ND " V 3700 4400 50  0001 C CNN "Supplier Part Number"
	1    3700 4400
	-1   0    0    -1  
$EndComp
$Comp
L Connector_Generic:Conn_01x04 J18
U 1 1 5C814A4A
P 3700 6100
F 0 "J18" V 3800 6050 50  0000 C CNN
F 1 "B4B-XH-A(LF)(SN) " H 3780 6001 50  0001 L CNN
F 2 "" H 3700 6100 50  0001 C CNN
F 3 "~" H 3700 6100 50  0001 C CNN
F 4 "DigiKey" V 3700 6100 50  0001 C CNN "Supplier"
F 5 "455-2249-ND " V 3700 6100 50  0001 C CNN "Supplier Part Number"
	1    3700 6100
	-1   0    0    -1  
$EndComp
$Comp
L Connector_Generic:Conn_01x04 J23
U 1 1 5C814AF4
P 5350 6100
F 0 "J23" V 5450 6050 50  0000 C CNN
F 1 "B4B-XH-A(LF)(SN) " H 5430 6001 50  0001 L CNN
F 2 "" H 5350 6100 50  0001 C CNN
F 3 "~" H 5350 6100 50  0001 C CNN
F 4 "DigiKey" V 5350 6100 50  0001 C CNN "Supplier"
F 5 "455-2249-ND " V 5350 6100 50  0001 C CNN "Supplier Part Number"
	1    5350 6100
	1    0    0    -1  
$EndComp
$Comp
L Connector_Generic:Conn_01x04 J22
U 1 1 5C81BFC4
P 5350 4400
F 0 "J22" V 5450 4350 50  0000 C CNN
F 1 "B4B-XH-A(LF)(SN) " H 5430 4301 50  0001 L CNN
F 2 "" H 5350 4400 50  0001 C CNN
F 3 "~" H 5350 4400 50  0001 C CNN
F 4 "DigiKey" V 5350 4400 50  0001 C CNN "Supplier"
F 5 "455-2249-ND " V 5350 4400 50  0001 C CNN "Supplier Part Number"
	1    5350 4400
	1    0    0    -1  
$EndComp
$Comp
L Connector_Generic:Conn_01x04 J13
U 1 1 5C81C076
P 2900 4400
F 0 "J13" V 3000 4350 50  0000 C CNN
F 1 "B4B-XH-A(LF)(SN) " H 2980 4301 50  0001 L CNN
F 2 "" H 2900 4400 50  0001 C CNN
F 3 "~" H 2900 4400 50  0001 C CNN
F 4 "DigiKey" V 2900 4400 50  0001 C CNN "Supplier"
F 5 "455-2249-ND " V 2900 4400 50  0001 C CNN "Supplier Part Number"
	1    2900 4400
	1    0    0    -1  
$EndComp
$Comp
L Connector_Generic:Conn_01x04 J14
U 1 1 5C81C128
P 2900 6100
F 0 "J14" V 3000 6050 50  0000 C CNN
F 1 "B4B-XH-A(LF)(SN) " H 2980 6001 50  0001 L CNN
F 2 "" H 2900 6100 50  0001 C CNN
F 3 "~" H 2900 6100 50  0001 C CNN
F 4 "DigiKey" V 2900 6100 50  0001 C CNN "Supplier"
F 5 "455-2249-ND " V 2900 6100 50  0001 C CNN "Supplier Part Number"
	1    2900 6100
	1    0    0    -1  
$EndComp
$Comp
L Connector_Generic:Conn_01x04 J16
U 1 1 5C81C1DC
P 2950 2750
F 0 "J16" V 3050 2700 50  0000 C CNN
F 1 "B4B-XH-A(LF)(SN) " H 3030 2651 50  0001 L CNN
F 2 "" H 2950 2750 50  0001 C CNN
F 3 "~" H 2950 2750 50  0001 C CNN
F 4 "DigiKey" V 2950 2750 50  0001 C CNN "Supplier"
F 5 "455-2249-ND " V 2950 2750 50  0001 C CNN "Supplier Part Number"
	1    2950 2750
	1    0    0    -1  
$EndComp
$Comp
L Connector_Generic:Conn_01x04 J15
U 1 1 5C81C4D2
P 2950 1050
F 0 "J15" V 3050 1000 50  0000 C CNN
F 1 "B4B-XH-A(LF)(SN) " H 3030 951 50  0001 L CNN
F 2 "" H 2950 1050 50  0001 C CNN
F 3 "~" H 2950 1050 50  0001 C CNN
F 4 "DigiKey" V 2950 1050 50  0001 C CNN "Supplier"
F 5 "455-2249-ND " V 2950 1050 50  0001 C CNN "Supplier Part Number"
	1    2950 1050
	1    0    0    -1  
$EndComp
$Comp
L Connector_Generic:Conn_01x03 J8
U 1 1 5C81C765
P 1900 3550
F 0 "J8" V 2000 3550 50  0000 C CNN
F 1 "B3B-XH-A(LF)(SN) " H 1980 3501 50  0001 L CNN
F 2 "" H 1900 3550 50  0001 C CNN
F 3 "~" H 1900 3550 50  0001 C CNN
F 4 "DigiKey" V 1900 3550 50  0001 C CNN "Supplier"
F 5 "455-2248-ND " V 1900 3550 50  0001 C CNN "Supplier Part Number"
	1    1900 3550
	-1   0    0    1   
$EndComp
$Comp
L Connector_Generic:Conn_01x03 J7
U 1 1 5C81C96B
P 1800 5200
F 0 "J7" V 1900 5200 50  0000 C CNN
F 1 "B3B-XH-A(LF)(SN) " H 1880 5151 50  0001 L CNN
F 2 "" H 1800 5200 50  0001 C CNN
F 3 "~" H 1800 5200 50  0001 C CNN
F 4 "DigiKey" V 1800 5200 50  0001 C CNN "Supplier"
F 5 "455-2248-ND " V 1800 5200 50  0001 C CNN "Supplier Part Number"
	1    1800 5200
	-1   0    0    1   
$EndComp
$Comp
L Connector_Generic:Conn_01x03 J10
U 1 1 5C81CDFA
P 2350 5200
F 0 "J10" V 2450 5200 50  0000 C CNN
F 1 "B3B-XH-A(LF)(SN) " H 2430 5151 50  0001 L CNN
F 2 "" H 2350 5200 50  0001 C CNN
F 3 "~" H 2350 5200 50  0001 C CNN
F 4 "DigiKey" V 2350 5200 50  0001 C CNN "Supplier"
F 5 "455-2248-ND " V 2350 5200 50  0001 C CNN "Supplier Part Number"
	1    2350 5200
	1    0    0    1   
$EndComp
$Comp
L Connector_Generic:Conn_01x03 J12
U 1 1 5C82422A
P 2450 3550
F 0 "J12" V 2550 3550 50  0000 C CNN
F 1 "B3B-XH-A(LF)(SN) " H 2530 3501 50  0001 L CNN
F 2 "" H 2450 3550 50  0001 C CNN
F 3 "~" H 2450 3550 50  0001 C CNN
F 4 "DigiKey" V 2450 3550 50  0001 C CNN "Supplier"
F 5 "455-2248-ND " V 2450 3550 50  0001 C CNN "Supplier Part Number"
	1    2450 3550
	1    0    0    1   
$EndComp
$Comp
L Connector_Generic:Conn_01x03 J11
U 1 1 5C824400
P 2450 1900
F 0 "J11" V 2550 1900 50  0000 C CNN
F 1 "B3B-XH-A(LF)(SN) " H 2530 1851 50  0001 L CNN
F 2 "" H 2450 1900 50  0001 C CNN
F 3 "~" H 2450 1900 50  0001 C CNN
F 4 "DigiKey" V 2450 1900 50  0001 C CNN "Supplier"
F 5 "455-2248-ND " V 2450 1900 50  0001 C CNN "Supplier Part Number"
	1    2450 1900
	1    0    0    1   
$EndComp
$Comp
L Connector_Generic:Conn_01x02 J20
U 1 1 5C8248D7
P 4300 1650
F 0 "J20" V 4400 1600 50  0000 C CNN
F 1 "B2B-XH-A(LF)(SN) " H 4220 1416 50  0001 C CNN
F 2 "" H 4300 1650 50  0001 C CNN
F 3 "~" H 4300 1650 50  0001 C CNN
F 4 "DigiKey" V 4300 1650 50  0001 C CNN "Supplier"
F 5 "455-2247-ND" V 4300 1650 50  0001 C CNN "Supplier Part Number"
	1    4300 1650
	1    0    0    1   
$EndComp
$Comp
L Connector_Generic:Conn_01x03 J19
U 1 1 5C82BF97
P 3800 800
F 0 "J19" V 3900 800 50  0000 C CNN
F 1 "B3B-XH-A(LF)(SN) " H 3880 751 50  0001 L CNN
F 2 "" H 3800 800 50  0001 C CNN
F 3 "~" H 3800 800 50  0001 C CNN
F 4 "DigiKey" V 3800 800 50  0001 C CNN "Supplier"
F 5 "455-2248-ND " V 3800 800 50  0001 C CNN "Supplier Part Number"
	1    3800 800 
	-1   0    0    1   
$EndComp
$Comp
L Connector_Generic:Conn_01x03 J21
U 1 1 5C82C075
P 4400 800
F 0 "J21" V 4500 800 50  0000 C CNN
F 1 "B3B-XH-A(LF)(SN) " H 4480 751 50  0001 L CNN
F 2 "" H 4400 800 50  0001 C CNN
F 3 "~" H 4400 800 50  0001 C CNN
F 4 "DigiKey" V 4400 800 50  0001 C CNN "Supplier"
F 5 "455-2248-ND " V 4400 800 50  0001 C CNN "Supplier Part Number"
	1    4400 800 
	1    0    0    -1  
$EndComp
Wire Wire Line
	4100 1100 4100 900 
Connection ~ 4100 900 
Wire Wire Line
	4100 900  4200 900 
Wire Wire Line
	4150 1200 4100 1200
Wire Wire Line
	4150 800  4150 1200
Connection ~ 4150 800 
Wire Wire Line
	4150 800  4200 800 
$Comp
L Connector_Generic:Conn_01x02 J24
U 1 1 5C855A49
P 3750 2050
F 0 "J24" V 3850 2000 50  0000 C CNN
F 1 "B2B-XH-A(LF)(SN) " H 3670 1816 50  0001 C CNN
F 2 "" H 3750 2050 50  0001 C CNN
F 3 "~" H 3750 2050 50  0001 C CNN
F 4 "DigiKey" V 3750 2050 50  0001 C CNN "Supplier"
F 5 "455-2247-ND" V 3750 2050 50  0001 C CNN "Supplier Part Number"
	1    3750 2050
	-1   0    0    1   
$EndComp
$Comp
L Connector_Generic:Conn_01x02 J25
U 1 1 5C85D761
P 4300 2050
F 0 "J25" V 4400 2000 50  0000 C CNN
F 1 "B2B-XH-A(LF)(SN) " H 4220 1816 50  0001 C CNN
F 2 "" H 4300 2050 50  0001 C CNN
F 3 "~" H 4300 2050 50  0001 C CNN
F 4 "DigiKey" V 4300 2050 50  0001 C CNN "Supplier"
F 5 "455-2247-ND" V 4300 2050 50  0001 C CNN "Supplier Part Number"
	1    4300 2050
	1    0    0    1   
$EndComp
$Comp
L Connector_Generic:Conn_01x02 J26
U 1 1 5C85DBE0
P 4300 2300
F 0 "J26" V 4400 2250 50  0000 C CNN
F 1 "B2B-XH-A(LF)(SN) " H 4220 2066 50  0001 C CNN
F 2 "" H 4300 2300 50  0001 C CNN
F 3 "~" H 4300 2300 50  0001 C CNN
F 4 "DigiKey" V 4300 2300 50  0001 C CNN "Supplier"
F 5 "455-2247-ND" V 4300 2300 50  0001 C CNN "Supplier Part Number"
	1    4300 2300
	1    0    0    1   
$EndComp
$Comp
L Connector_Generic:Conn_01x02 J27
U 1 1 5C85DC92
P 4300 2550
F 0 "J27" V 4400 2500 50  0000 C CNN
F 1 "B2B-XH-A(LF)(SN) " H 4220 2316 50  0001 C CNN
F 2 "" H 4300 2550 50  0001 C CNN
F 3 "~" H 4300 2550 50  0001 C CNN
F 4 "DigiKey" V 4300 2550 50  0001 C CNN "Supplier"
F 5 "455-2247-ND" V 4300 2550 50  0001 C CNN "Supplier Part Number"
	1    4300 2550
	1    0    0    1   
$EndComp
$Comp
L Connector_Generic:Conn_01x02 J28
U 1 1 5C85DD44
P 4300 2800
F 0 "J28" V 4400 2750 50  0000 C CNN
F 1 "B2B-XH-A(LF)(SN) " H 4220 2566 50  0001 C CNN
F 2 "" H 4300 2800 50  0001 C CNN
F 3 "~" H 4300 2800 50  0001 C CNN
F 4 "DigiKey" V 4300 2800 50  0001 C CNN "Supplier"
F 5 "455-2247-ND" V 4300 2800 50  0001 C CNN "Supplier Part Number"
	1    4300 2800
	1    0    0    1   
$EndComp
Wire Wire Line
	3950 1950 4050 1950
Wire Wire Line
	3950 2050 4000 2050
Wire Wire Line
	4000 2800 4100 2800
Connection ~ 4000 2050
Wire Wire Line
	4000 2050 4100 2050
Connection ~ 4000 2550
Wire Wire Line
	4000 2550 4000 2800
Wire Wire Line
	4100 2550 4000 2550
Wire Wire Line
	4100 2300 4000 2300
Wire Wire Line
	4000 2050 4000 2300
Connection ~ 4000 2300
Wire Wire Line
	4000 2300 4000 2550
Wire Wire Line
	4050 1950 4050 2200
Wire Wire Line
	4050 2200 4100 2200
Connection ~ 4050 1950
Wire Wire Line
	4050 1950 4100 1950
Wire Wire Line
	4050 2200 4050 2450
Wire Wire Line
	4050 2700 4100 2700
Connection ~ 4050 2200
Wire Wire Line
	4100 2450 4050 2450
Connection ~ 4050 2450
Wire Wire Line
	4050 2450 4050 2700
Wire Notes Line
	3500 1850 4650 1850
Wire Notes Line
	4650 1850 4650 2950
Wire Notes Line
	4650 2950 3500 2950
Wire Notes Line
	3500 2950 3500 1850
Text Notes 3450 2550 1    50   ~ 0
12V Misc.
$EndSCHEMATC
